{
	"type": "minecraft:crafting_shaped",
	"pattern": [
		"LLL",
		"LIL",
		"S S"
	],
	"key": {
		"L": {
			"item": "minecraft:leather"
		},
		"I": {
			"tag": "forge:ingots/iron"
		},
		"S": {
			"item": "minecraft:string"
		}
	},
	"result": {
		"item": "minecraft:saddle"
	}
}
